Landslide Susceptibility Model Development
…
3.3 Test for Spatial Autocorrelation

First, we will import the dataset.

train_point <- read_sf(dsn = "./data/vector", layer = "train_point") %>% st_transform(crs = 32632)

train_point

Simple feature collection with 50563 features and 31 fields
Geometry type: POINT
Dimension:     XY
Bounding box:  xmin: 519097.5 ymin: 5095541 xmax: 624487.5 ymax: 5164991
Projected CRS: WGS 84 / UTM zone 32N
# A tibble: 50,563 × 32
   Train_ID Grid_ID       X        Y Landslide Elevation Slope_Angl Aspect_Nor
 *    <dbl>   <dbl>   <dbl>    <dbl>     <int>     <dbl>      <dbl>      <int>
 1    29037 8236207 584767. 5160491.         1     2621        11.1          0
 2    28534 8092089 585232. 5159711.         0     2737.       90.0          0
 3    29021 8232815 584782. 5160866.         0     2721        90.0          0
 4    27434 7755202 586222. 5160581.         1     2237        28.5          0
 5    27468 7762804 586192. 5160626.         1     2200        27.7          1
 6    27469 7762811 586192. 5160521.         1     2271        35.5          0
 7    27482 7766683 586177. 5160776.         1     2119.       31.9          0
 8    27553 7792961 586117. 5160071.         1     2607        47.5          0
 9    27567 7796978 586102. 5161031.         1     2188.       27.6          0
10    27568 7797002 586102. 5161151.         1     2296        32.7          0
# ℹ 50,553 more rows
# ℹ 24 more variables: Aspect_N_1 <int>, Aspect_Eas <int>, Aspect_Sou <int>,
#   Aspect_S_1 <int>, Aspect_S_2 <int>, Aspect_Wes <int>, Aspect_N_2 <int>,
#   Profile_Cu <dbl>, Plan_Curva <dbl>, Lithology_ <int>, Litholog_1 <int>,
#   Litholog_2 <int>, Litholog_3 <int>, Litholog_4 <int>, Proximity_ <dbl>,
#   Proximit_1 <dbl>, Proximit_2 <dbl>, Proximit_3 <dbl>, Landuse_No <int>,
#   Landuse_Ve <int>, Landuse_Wa <int>, Precipitat <dbl>, TWI <dbl>, …
…
